[
    {
        "id": 1,
        "type": "folder",
        "name": "ProjectName",
        "children": [
            {
                "id": 2,
                "type": "folder",
                "name": "public",
                "children": [
                    {
                        "id": 7,
                        "type": "file",
                        "name": "index.js",
                        "fileContent": "let userName = 'John';\nconst NO_DATA_FOUND = null;\n\nfunction showMessage() {\n\tif (true) {\n\t\tuserName = 'Bob'; // (1) changed the outer variable\n\t}\n\tlet message = 'Hello, ' + userName;\n\talert(message);\n}\n\nlet user = getUser();\n\nfunction getUser(someUser = 'FreeGuy') {\n\treturn Repository.getUser(someUser);\n}\n\nfunction enableGodMode() {\n\t// Currently hardcoding 'god' constant\n\tuser.setPriviledges('god');\n\tRepository.updateUser(user);\n}",
                        "commit": "Added React icon",
                        "time": "1631855730000",
                        "test": ""
                    }
                ],
                "commit": "First commit",
                "time": "1631879040000"
            },
            {
                "id": 3,
                "type": "folder",
                "name": "src",
                "children": [
                    {
                        "id": 8,
                        "type": "folder",
                        "name": "components",
                        "children": [
                            {
                                "id": 15,
                                "type": "file",
                                "name": "Page.jsx",
                                "fileContent": "import React from 'react';\n\nimport NavigationMenu from '../navigation-menu/NavigationMenu';\nimport BreadcrumbsNavigation from '../breadcrumbs-navigation/BreadcrumbsNavigation';\n\nimport './Page.css'\n\nclass Page extends React.Component {\n\tconstructor(props) {\n\t\tsuper(props);\n\t\tthis.state = {\n\t\t\tfileName: this.props.location.pathname,\n\t\t\tnewDataFromChild: jsonData\n\t\t}\n\t}\n}",
                                "commit": "Created Page Component",
                                "time": "1631866530000"
                            },
                            {
                                "id": 16,
                                "type": "file",
                                "name": "BreadcrumbsNavigation.jsx",
                                "fileContent": "import React from 'react';\nimport { withRouter } from 'react-router-dom';\n\nimport BreadcrumbItem from '../breadcrumb-item/BreadcrumbItem';\nimport './BreadcrumbsNavigation.css';\n\n\nclass BreadcrumbsNavigation extends React.Component {\n\n\trender() {\n\t\tlet path = [...this.props.fileName.split('/').filter(e => e)]\n\t\tlet pathLength = path.length\n\t\tlet newPath = path.slice(0, pathLength - 1)\n\n\t\treturn <div className='breadcrumbs-container'>\n\t\t\t{\n\t\t\t\tnewPath.map((link) => {\n\t\t\t\t\treturn <BreadcrumbItem \n\t\t\t\t\t\tkey={link} \n\t\t\t\t\t\tURLPath={'/' + path.join('/').slice(0, path.join('/').indexOf(link)) + link} \n\t\t\t\t\t\titemName={link} />\n\t\t\t\t})\n\t\t\t}\n\t\t\t<div className='path-element' >{path[pathLength - 1]} / </div> \n\t\t</div>\n\t}\n}\n\n export default withRouter(BreadcrumbsNavigation);",
                                "commit": "Created Bradcrumbs nav Component",
                                "time": "1631868330000"
                            },
                            {
                                "id": 17,
                                "type": "file",
                                "name": "FileRow.jsx",
                                "fileContent": "",
                                "commit": "Component",
                                "time": "1630485930000"
                            },
                            {
                                "id": 18,
                                "type": "file",
                                "name": "Container.jsx",
                                "fileContent": "",
                                "commit": "Component",
                                "time": "1630485930000"
                            },
                            {
                                "id": 9,
                                "type": "folder",
                                "name": "style",
                                "children": [],
                                "commit": "Create style folder",
                                "time": "1631866530000"
                            },
                            {
                                "id": 10,
                                "type": "folder",
                                "name": "assets",
                                "children": [
                                    {
                                        "id": 12,
                                        "type": "folder",
                                        "name": "images",
                                        "children": [],
                                        "commit": "Added a file svg",
                                        "time": "1631868330000"
                                    },
                                    {
                                        "id": 11,
                                        "type": "folder",
                                        "name": "svg",
                                        "children": [
                                            {
                                                "id": 13,
                                                "type": "file",
                                                "name": "plusIcon.svg",
                                                "fileContent": "",
                                                "commit": "Added svg",
                                                "time": "1631868330000"
                                            },
                                            {
                                                "id": 14,
                                                "type": "file",
                                                "name": "minusIcon.svg",
                                                "fileContent": "",
                                                "commit": "Added svg",
                                                "time": "1631868330000"
                                            }
                                        ],
                                        "commit": "svg",
                                        "time": "1631868330000"
                                    }
                                ],
                                "commit": "Assets folder",
                                "time": "1631866530000"
                            }
                        ],
                        "commit": "Components",
                        "time": "1631855730000"
                    }
                ],
                "commit": "First commit",
                "time": "1566209730000"
            },
            {
                "id": 4,
                "type": "file",
                "name": "package.json",
                "fileContent": "",
                "commit": "First commit",
                "time": "1631268930000"
            },
            {
                "id": 5,
                "type": "file",
                "name": "webpack.config.js",
                "fileContent": "",
                "commit": "Modified webpack.config file",
                "time": "1631855730000"
            },
            {
                "id": 6,
                "type": "file",
                "name": ".babelrc",
                "fileContent": "",
                "commit": "Added babelrc file",
                "time": "1618827330000"
            }
        ],
        "commit": "First commit",
        "time": "1631879040000"
    },
    {
        "id": 1,
        "type": "folder",
        "name": "ProjectName2",
        "children": [],
        "commit": "First commit",
        "time": "1631879040000"
    }
]